[
  {
    "id": 1,
    "details": "Test News 1",
    "image": "https://www.davidsmalldesigns.com/wp-content/uploads/2020/01/gallery-modern-at-hart-01.jpg"
  },
  {
    "id": 2,
    "details": "Test News 2",
    "image": "https://www.davidsmalldesigns.com/wp-content/uploads/2020/01/gallery-modern-at-hart-01.jpg"
  },
  {
    "id": 3,
    "details": "Test News 3",
    "image": "https://www.davidsmalldesigns.com/wp-content/uploads/2020/01/gallery-modern-at-hart-01.jpg"
  },
  {
    "id": 4,
    "details": "Test News 4",
    "image": "https://www.davidsmalldesigns.com/wp-content/uploads/2020/01/gallery-modern-at-hart-01.jpg"
  },
  {
    "id": 5,
    "details": "Test News 5",
    "image": "https://www.davidsmalldesigns.com/wp-content/uploads/2020/01/gallery-modern-at-hart-01.jpg"
  },
  {
    "id": 6,
    "details": "Test News 6",
    "image": "https://www.davidsmalldesigns.com/wp-content/uploads/2020/01/gallery-modern-at-hart-01.jpg"
  }
]
